[
  {
    "id": "5d2c865e9a0bae79a6ef7cfa",
    "firstName": "Ashley",
    "lastName": "Mcdaniel",
    "fullName": "Ashley Mcdaniel",
    "email": "ashleymcdaniel@nebulean.com",
    "country": "Peru",
    "starred": true,
    "hasReport": false,
    "status": "warning",
    "checked": false,
    "trend": "down",
    "color": "warning",
    "graph": "M 5 20 C 10 5, 15 5, 30 30 S 20 20, 70 20",
    "graphColor": "#4ae387"
  },
  {
    "id": "5d2c865ec73341e16e5f2251",
    "firstName": "Sellers",
    "lastName": "Todd",
    "fullName": "Todd Sellers",
    "email": "sellerstodd@nebulean.com",
    "country": "Togo",
    "starred": false,
    "hasReport": false,
    "status": "info",
    "checked": false,
    "trend": "none",
    "color": "primary",
    "graph": "M 5 30 C 10 5, 30 10, 40 30 S 30 30, 90 40",
    "graphColor": "#e34a4a"
  },
  {
    "id": "5d2c865e38800c5ce28f2f6b",
    "firstName": "Sherman",
    "lastName": "Knowles",
    "fullName": "Sherman Knowles",
    "email": "shermanknowles@nebulean.com",
    "country": "Central African Republic",
    "starred": true,
    "hasReport": true,
    "status": "warning",
    "checked": false,
    "trend": "none",
    "color": "warning",
    "graph": "M 5 20 C 10 5, 15 5, 30 30 S 20 20, 70 20",
    "graphColor": "#4ae387"
  },
  {
    "id": "5d2c865e957cd150b82e17a6",
    "firstName": "Vasquez",
    "lastName": "Lawson",
    "fullName": "Vasquez Lawson",
    "email": "vasquezlawson@nebulean.com",
    "country": "Bouvet Island",
    "starred": true,
    "hasReport": false,
    "status": "info",
    "checked": false,
    "trend": "down",
    "color": "warning",
    "graph": "M 5 30 C 10 5, 30 10, 40 30 S 30 30, 90 40",
    "graphColor": "#e34a4a"
  },
  {
    "id": "5d2c865e9194dbe2faf99227",
    "firstName": "April",
    "lastName": "Sykes",
    "fullName": "April Sykes",
    "email": "aprilsykes@nebulean.com",
    "country": "Saint Vincent and The Grenadines",
    "starred": false,
    "hasReport": true,
    "status": "warning",
    "checked": false,
    "trend": "down",
    "color": "primary",
    "graph": "M 5 20 C 10 5, 15 5, 30 30 S 20 20, 70 20",
    "graphColor": "#4ae387"
  },
  {
    "id": "5d2c865e1ed74d83f6b26934",
    "firstName": "Hodges",
    "lastName": "Garrison",
    "fullName": "Hodges Garrison",
    "email": "hodgesgarrison@nebulean.com",
    "country": "Zimbabwe",
    "starred": true,
    "hasReport": false,
    "status": "info",
    "checked": false,
    "trend": "none",
    "color": "info",
    "graph": "M 5 30 C 10 5, 30 10, 40 30 S 30 30, 90 40",
    "graphColor": "#e34a4a"
  },
  {
    "id": "5d2c865e0ef31380880c3de5",
    "firstName": "Therese",
    "lastName": "Stokes",
    "fullName": "Therese Stokes",
    "email": "theresestokes@nebulean.com",
    "country": "Mali",
    "starred": true,
    "hasReport": false,
    "status": "info",
    "checked": false,
    "trend": "up",
    "color": "warning",
    "graph": "M 5 20 C 10 5, 15 5, 30 30 S 20 20, 70 20",
    "graphColor": "#4ae387"
  },
  {
    "id": "5d2c865e4b5ab4727e5c8b69",
    "firstName": "Goodwin",
    "lastName": "Brewer",
    "fullName": "Goodwin Brewer",
    "email": "goodwinbrewer@nebulean.com",
    "country": "Iraq",
    "starred": true,
    "hasReport": true,
    "status": "info",
    "checked": false,
    "trend": "none",
    "color": "info",
    "graph": "M 5 30 C 10 5, 30 10, 40 30 S 30 30, 90 40",
    "graphColor": "#e34a4a"
  },
  {
    "id": "5d2c865e4c4d675787cfe1c0",
    "firstName": "Gomez",
    "lastName": "Wise",
    "fullName": "Gomez Wise",
    "email": "gomezwise@nebulean.com",
    "country": "Portugal",
    "starred": true,
    "hasReport": true,
    "status": "info",
    "checked": false,
    "trend": "none",
    "color": "primary",
    "graph": "M 5 30 C 10 5, 30 10, 40 30 S 30 30, 90 40",
    "graphColor": "#e34a4a"
  },
  {
    "id": "5d2c865e1017c3229017fc68",
    "firstName": "Laverne",
    "lastName": "Ayers",
    "fullName": "Laverne Ayers",
    "email": "laverneayers@nebulean.com",
    "country": "Micronesia",
    "starred": false,
    "hasReport": false,
    "status": "warning",
    "checked": false,
    "trend": "down",
    "color": "info",
    "graph": "M 5 20 C 10 5, 15 5, 30 30 S 20 20, 70 20",
    "graphColor": "#4ae387"
  },
  {
    "id": "5d2c865ee66676fd7464f8b9",
    "firstName": "Stewart",
    "lastName": "Leon",
    "fullName": "Stewart Leon",
    "email": "stewartleon@nebulean.com",
    "country": "Seychelles",
    "starred": true,
    "hasReport": false,
    "status": "info",
    "checked": false,
    "trend": "up",
    "color": "info",
    "graph": "M 5 30 C 10 5, 30 10, 40 30 S 30 30, 90 40",
    "graphColor": "#e34a4a"
  },
  {
    "id": "5d2c865e644d8acbed1e0e97",
    "firstName": "Lindsey",
    "lastName": "Hopkins",
    "fullName": "Lindsey Hopkins",
    "email": "lindseyhopkins@nebulean.com",
    "country": "Costa Rica",
    "starred": false,
    "hasReport": true,
    "status": "info",
    "checked": false,
    "trend": "up",
    "color": "primary",
    "graph": "M 5 20 C 10 5, 15 5, 30 30 S 20 20, 70 20",
    "graphColor": "#4ae387"
  },
  {
    "id": "5d2c865ef2b732c74dc3d6a2",
    "firstName": "Head",
    "lastName": "Lloyd",
    "fullName": "Head Lloyd",
    "email": "headlloyd@nebulean.com",
    "country": "Turkey",
    "starred": true,
    "hasReport": false,
    "status": "warning",
    "checked": false,
    "trend": "down",
    "color": "info",
    "graph": "M 5 30 C 10 5, 30 10, 40 30 S 30 30, 90 40",
    "graphColor": "#e34a4a"
  },
  {
    "id": "5d2c865e4ee4f09e92ead2e7",
    "firstName": "Fisher",
    "lastName": "Bradford",
    "fullName": "Fisher Bradford",
    "email": "fisherbradford@nebulean.com",
    "country": "Ethiopia",
    "starred": true,
    "hasReport": true,
    "status": "info",
    "checked": false,
    "trend": "up",
    "color": "info",
    "graph": "M 5 20 C 10 5, 15 5, 30 30 S 20 20, 70 20",
    "graphColor": "#4ae387"
  },
  {
    "id": "5d2c865e88d46a9e9049a549",
    "firstName": "Aurora",
    "lastName": "Bird",
    "fullName": "Aurora Bird",
    "email": "aurorabird@nebulean.com",
    "country": "Burkina Faso",
    "starred": false,
    "hasReport": true,
    "status": "warning",
    "checked": false,
    "trend": "up",
    "color": "info",
    "graph": "M 5 30 C 10 5, 30 10, 40 30 S 30 30, 90 40",
    "graphColor": "#e34a4a"
  },
  {
    "id": "5d2c865e44bf14ea96d6e752",
    "firstName": "Bonita",
    "lastName": "Shields",
    "fullName": "Bonita Shields",
    "email": "bonitashields@nebulean.com",
    "country": "Cote D'Ivoire (Ivory Coast)",
    "starred": true,
    "hasReport": true,
    "status": "warning",
    "checked": false,
    "trend": "down",
    "color": "primary",
    "graph": "M 5 20 C 10 5, 15 5, 30 30 S 20 20, 70 20",
    "graphColor": "#4ae387"
  },
  {
    "id": "5d2c865e2a8be26f6ac4369c",
    "firstName": "Ethel",
    "lastName": "Underwood",
    "fullName": "Ethel Underwood",
    "email": "ethelunderwood@nebulean.com",
    "country": "Vanuatu",
    "starred": false,
    "hasReport": false,
    "status": "warning",
    "checked": false,
    "trend": "down",
    "color": "info",
    "graph": "M 5 30 C 10 5, 30 10, 40 30 S 30 30, 90 40",
    "graphColor": "#e34a4a"
  },
  {
    "id": "5d2c865e5e0aea40111c37f8",
    "firstName": "Parker",
    "lastName": "May",
    "fullName": "Parker May",
    "email": "parkermay@nebulean.com",
    "country": "Pakistan",
    "starred": true,
    "hasReport": false,
    "status": "warning",
    "checked": false,
    "trend": "down",
    "color": "warning",
    "graph": "M 5 20 C 10 5, 15 5, 30 30 S 20 20, 70 20",
    "graphColor": "#4ae387"
  },
  {
    "id": "5d2c865e7e0c05ecc2d0c186",
    "firstName": "Hillary",
    "lastName": "Waters",
    "fullName": "Hillary Waters",
    "email": "hillarywaters@nebulean.com",
    "country": "Comoros",
    "starred": true,
    "hasReport": true,
    "status": "info",
    "checked": false,
    "trend": "down",
    "color": "primary",
    "graph": "M 5 30 C 10 5, 30 10, 40 30 S 30 30, 90 40",
    "graphColor": "#e34a4a"
  },
  {
    "id": "5d2c865e80a72eeda016b169",
    "firstName": "Raquel",
    "lastName": "Ferrell",
    "fullName": "Raquel Ferrell",
    "email": "raquelferrell@nebulean.com",
    "country": "China",
    "starred": false,
    "hasReport": false,
    "status": "warning",
    "checked": false,
    "trend": "down",
    "color": "info",
    "graph": "M 5 20 C 10 5, 15 5, 30 30 S 20 20, 70 20",
    "graphColor": "#4ae387"
  },
  {
    "id": "5d2c865eafacadd378add679",
    "firstName": "Pickett",
    "lastName": "Page",
    "fullName": "Pickett Page",
    "email": "pickettpage@nebulean.com",
    "country": "Bermuda",
    "starred": true,
    "hasReport": false,
    "status": "info",
    "checked": false,
    "trend": "up",
    "color": "info",
    "graph": "M 5 30 C 10 5, 30 10, 40 30 S 30 30, 90 40",
    "graphColor": "#e34a4a"
  },
  {
    "id": "5d2c865e772b1a75bb0a07b5",
    "firstName": "Alyson",
    "lastName": "Bailey",
    "fullName": "Alyson Bailey",
    "email": "alysonbailey@nebulean.com",
    "country": "United Arab Emirates",
    "starred": false,
    "hasReport": false,
    "status": "warning",
    "checked": false,
    "trend": "up",
    "color": "warning",
    "graph": "M 5 20 C 10 5, 15 5, 30 30 S 20 20, 70 20",
    "graphColor": "#4ae387"
  },
  {
    "id": "5d2c865e137c19a76b56210c",
    "firstName": "Farley",
    "lastName": "Meyers",
    "fullName": "Farley Meyers",
    "email": "farleymeyers@nebulean.com",
    "country": "Christmas Island",
    "starred": false,
    "hasReport": false,
    "status": "info",
    "checked": false,
    "trend": "up",
    "color": "warning",
    "graph": "M 5 30 C 10 5, 30 10, 40 30 S 30 30, 90 40",
    "graphColor": "#e34a4a"
  },
  {
    "id": "5d2c865eb0ba37a27aa9afe0",
    "firstName": "Hinton",
    "lastName": "Avery",
    "fullName": "Hinton Avery",
    "email": "hintonavery@nebulean.com",
    "country": "Liechtenstein",
    "starred": false,
    "hasReport": true,
    "status": "info",
    "checked": false,
    "trend": "up",
    "color": "info",
    "graph": "M 5 30 C 10 5, 30 10, 40 30 S 30 30, 90 40",
    "graphColor": "#e34a4a"
  }
]
